<svg xmlns="http://www.w3.org/2000/svg" width="22" height="19" viewBox="0 0 22 19">
    <path fill="#FFF" fill-rule="evenodd" d="M16.21 6.98H21c.55 0 1 .45 1 1l-.03.27-2.54 9.27a2.01 2.01 0 0 1-1.93 1.46h-13c-.92 0-1.69-.62-1.92-1.46L.04 8.25A.842.842 0 0 1 0 7.98c0-.55.45-1 1-1h4.79L10.17.43c.19-.29.51-.43.83-.43.32 0 .64.14.83.42l4.38 6.56zM8 6.98h6l-3-4.4-3 4.4zm-3.71 3.21l1.45 5.822.97-.242-1.45-5.822-.97.242zM10 9.98v6h1v-6h-1zm6.74-.032l-1.45 5.822.97.242 1.45-5.822-.97-.242z"/>
</svg>
